;*************************************************************
;*************************************************************
;**                                                         **
;**                        arctanh                          **
;**                                                         **
;*************************************************************
;*************************************************************
In: FL_SPCRES=0 FL_CPXRES=0 FL_SPCRES=0 SD=0 RMODE=0 IM=2compl SS=4 WS=64
Func: fnArctanh



;=======================================
; arctanh(Long Integer) --> Real
;=======================================
In:  AM=DEG FL_ASLIFT=0 FL_CPXRES=0 RX=LonI:"-2"
Out: EC=1 FL_CPXRES=0 FL_ASLIFT=0 RX=LonI:"-2"

In:  AM=DEG FL_ASLIFT=0 FL_CPXRES=0 FL_SPCRES=1 RX=LonI:"-2"
Out: EC=0 FL_CPXRES=0 FL_ASLIFT=1 RL=LonI:"-2" RX=Real:"NaN"

In:  AM=DEG FL_ASLIFT=0 FL_CPXRES=1 FL_SPCRES=0 RX=LonI:"-2"
Out: EC=0 FL_CPXRES=1 FL_ASLIFT=1 RL=LonI:"-2" RX=Cplx:"-0.54930614433405484569762261846126285232374527891137472586734717 i 1.5707963267948966192313216916397514420985846996875529104874723"

In:  AM=DEG FL_ASLIFT=0 FL_CPXRES=0 FL_SPCRES=0 RX=LonI:"-1"
Out: EC=1 FL_CPXRES=0 FL_ASLIFT=0 RX=LonI:"-1"

In:  AM=DEG FL_ASLIFT=0 FL_CPXRES=0 FL_SPCRES=1 RX=LonI:"-1"
Out: EC=0 FL_CPXRES=0 FL_ASLIFT=1 RL=LonI:"-1" RX=Real:"-inf"

In:  AM=DEG FL_ASLIFT=0 FL_CPXRES=0 FL_SPCRES=0 RX=LonI:"0"
Out: EC=0 FL_CPXRES=0 FL_ASLIFT=1 RL=LonI:"0" RX=Real:"0"

In:  AM=DEG FL_ASLIFT=0 FL_CPXRES=0 FL_SPCRES=0 RX=LonI:"1"
Out: EC=1 FL_CPXRES=0 FL_ASLIFT=0 RX=LonI:"1"

In:  AM=DEG FL_ASLIFT=0 FL_CPXRES=0 FL_SPCRES=1 RX=LonI:"1"
Out: EC=0 FL_CPXRES=0 FL_ASLIFT=1 RL=LonI:"1" RX=Real:"inf"

In:  AM=DEG FL_ASLIFT=0 FL_CPXRES=0 FL_SPCRES=0 RX=LonI:"2"
Out: EC=1 FL_CPXRES=0 FL_ASLIFT=0 RX=LonI:"2"

In:  AM=DEG FL_ASLIFT=0 FL_CPXRES=0 FL_SPCRES=1 RX=LonI:"2"
Out: EC=0 FL_CPXRES=0 FL_ASLIFT=1 RL=LonI:"2" RX=Real:"NaN"

In:  AM=DEG FL_ASLIFT=0 FL_CPXRES=1 FL_SPCRES=0 RX=LonI:"2"
Out: EC=0 FL_CPXRES=1 FL_ASLIFT=1 RL=LonI:"2" RX=Cplx:"0.54930614433405484569762261846126285232374527891137472586734717 i 1.5707963267948966192313216916397514420985846996875529104874723"



;=======================================
; arctanh(Time)
;=======================================



;=======================================
; arctanh(Date)
;=======================================



;=======================================
; arctanh(String) --> Error24
;=======================================
In:  FL_ASLIFT=0 RX=Stri:"String test"
Out: EC=24 FL_ASLIFT=0 RX=Stri:"String test"



;=======================================
; arctanh(Real Matrix)
;=======================================
In:  AM=RAD FL_ASLIFT=0 FL_CPXRES=0 RX=ReMa:"M2,3[0,-0.1,0.2,-0.3,0.4,-0.5]"
Out: EC=0 FL_CPXRES=0 FL_ASLIFT=1 RL=ReMa:"M2,3[0,-0.1,0.2,-0.3,0.4,-0.5]" RX=ReMa:"M2,3[0,-0.100335347731075580635726552060038945263,0.202732554054082190989006557732174568286,-0.309519604203111715474067349061069437584,0.423648930193601806855053753260327012495,-0.549306144334054845697622618461262852324]"

In:  AM=RAD FL_ASLIFT=0 FL_CPXRES=0 RX=ReMa:"M2,3[2,-3,4,-5,6,-7]"
Out: EC=1 FL_CPXRES=0 FL_ASLIFT=0 RX=ReMa:"M2,3[2,-3,4,-5,6,-7]"

In:  AM=RAD FL_ASLIFT=0 FL_CPXRES=1 RX=ReMa:"M2,3[2,-3,4,-5,6,-7]"
Out: EC=0 FL_CPXRES=1 FL_ASLIFT=1 RL=ReMa:"M2,3[2,-3,4,-5,6,-7]" RX=CxMa:"M2,3[0.54930614433405484569762261846126285232i1.57079632679489661923132169163975144210,-0.34657359027997265470861606072908828404i1.57079632679489661923132169163975144210,0.25541281188299534160275704815183096744i1.57079632679489661923132169163975144210,-0.20273255405408219098900655773217456829i1.57079632679489661923132169163975144210,0.16823611831060646525229670510849604506i1.57079632679489661923132169163975144210,-0.14384103622589046371960950299691371575i1.57079632679489661923132169163975144210]"



;=======================================
; arctanh(Complex Matrix)
;=======================================
In:  AM=RAD FL_ASLIFT=0 FL_CPXRES=0 RX=CxMa:"M2,3[0,0i-1,2i-1,-3i2,4i3,-5i-4]"
Out: EC=0 FL_CPXRES=1 FL_ASLIFT=1 RL=CxMa:"M2,3[0,0i-1,2i-1,-3i2,4i3,-5i-4]" RX=CxMa:"M2,3[0,0i-0.785398163397448309615660845819875721049,0.402359478108525093650189833306546909881i-1.338972522294493561124193575909144241084,-0.22907268296853876629588180294200276786i1.40992104959657552253061938446042078259,0.15899719167999917436476103600701878157i1.44830699523146454214528045103411353664,-0.12137695394542520195044776929769722514i-1.47209854686995624004629680904235629537]"



;=======================================
; arctanh(Short Integer) --> Real/Complex
;=======================================
In:  FL_ASLIFT=0 FL_CPXRES=1 RX=ShoI:"2#7"
Out: EC=0 FL_CPXRES=1 FL_ASLIFT=1 RL=ShoI:"2#7" RX=Cplx:"0.54930614433405484569762261846126285232374527891137472586734717 i 1.5707963267948966192313216916397514420985846996875529104874723"




;=======================================
; arctanh(Real) --> Real
;=======================================
In:  AM=DEG FL_ASLIFT=0 FL_CPXRES=0 RX=Real:"-2.5"
Out: EC=1 FL_CPXRES=0 FL_ASLIFT=0 RX=Real:"-2.5"

In:  AM=DEG FL_ASLIFT=0 FL_CPXRES=0 FL_SPCRES=1 RX=Real:"-2.5"
Out: EC=0 FL_CPXRES=0 FL_ASLIFT=1 RL=Real:"-2.5" RX=Real:"NaN"

In:  AM=DEG FL_ASLIFT=0 FL_CPXRES=0 FL_SPCRES=0 RX=Real:"-inf"
Out: EC=1 FL_CPXRES=0 FL_ASLIFT=0 RX=Real:"-inf"

In:  AM=DEG FL_ASLIFT=0 FL_CPXRES=0 FL_SPCRES=1 RX=Real:"-inf"
Out: EC=0 FL_CPXRES=0 FL_ASLIFT=1 RL=Real:"-inf" RX=Real:"NaN"

In:  AM=DEG FL_ASLIFT=0 FL_CPXRES=1 FL_SPCRES=0 RX=Real:"-2.5"
Out: EC=0 FL_CPXRES=1 FL_ASLIFT=1 RL=Real:"-2.5" RX=Cplx:"-0.42364893019360180685505375326032701249479708587955586836234791 i 1.5707963267948966192313216916397514420985846996875529104874723"

In:  AM=DEG FL_ASLIFT=0 FL_CPXRES=0 RX=Real:"-2"
Out: EC=1 FL_CPXRES=0 FL_ASLIFT=0 RX=Real:"-2"

In:  AM=DEG FL_ASLIFT=0 FL_CPXRES=1 RX=Real:"-2"
Out: EC=0 FL_CPXRES=1 FL_ASLIFT=1 RL=Real:"-2" RX=Cplx:"-0.54930614433405484569762261846126285232374527891137472586734717 i 1.5707963267948966192313216916397514420985846996875529104874723"

In:  AM=DEG FL_ASLIFT=0 FL_CPXRES=0 RX=Real:"-1.5"
Out: EC=1 FL_CPXRES=0 FL_ASLIFT=0 RX=Real:"-1.5"

In:  AM=DEG FL_ASLIFT=0 FL_CPXRES=1 RX=Real:"-1.5"
Out: EC=0 FL_CPXRES=1 FL_ASLIFT=1 RL=Real:"-1.5" RX=Cplx:"-0.80471895621705018730037966661309381976280067713425886095632395 i 1.5707963267948966192313216916397514420985846996875529104874723"

In:  AM=DEG FL_ASLIFT=0 FL_CPXRES=0 FL_SPCRES=1 RX=Real:"-1"
Out: EC=0 FL_CPXRES=0 FL_ASLIFT=1 RL=Real:"-1" RX=Real:"-inf"

In:  AM=DEG FL_ASLIFT=0 FL_CPXRES=0 FL_SPCRES=0 RX=Real:"-1"
Out: EC=1 FL_CPXRES=0 FL_ASLIFT=0 RX=Real:"-1"

In:  AM=DEG FL_ASLIFT=0 FL_CPXRES=0 RX=Real:"-0.5"
Out: EC=0 FL_CPXRES=0 FL_ASLIFT=1 RL=Real:"-0.5" RX=Real:"-0.54930614433405484569762261846126285232374527891137472586734717"

In:  AM=DEG FL_ASLIFT=0 FL_CPXRES=0 RX=Real:"0"
Out: EC=0 FL_CPXRES=0 FL_ASLIFT=1 RL=Real:"0" RX=Real:"0"

In:  AM=DEG FL_ASLIFT=0 FL_CPXRES=0 RX=Real:"0.5"
Out: EC=0 FL_CPXRES=0 FL_ASLIFT=1 RL=Real:"0.5" RX=Real:"0.54930614433405484569762261846126285232374527891137472586734717"

In:  AM=DEG FL_ASLIFT=0 FL_CPXRES=0 FL_SPCRES=1 RX=Real:"1"
Out: EC=0 FL_CPXRES=0 FL_ASLIFT=1 RL=Real:"1" RX=Real:"inf"

In:  AM=DEG FL_ASLIFT=0 FL_CPXRES=0 FL_SPCRES=0 RX=Real:"1.5"
Out: EC=1 FL_CPXRES=0 FL_ASLIFT=0 RX=Real:"1.5"

In:  AM=DEG FL_ASLIFT=0 FL_CPXRES=1 RX=Real:"1.5"
Out: EC=0 FL_CPXRES=1 FL_ASLIFT=1 RL=Real:"1.5" RX=Cplx:"0.80471895621705018730037966661309381976280067713425886095632395 i 1.5707963267948966192313216916397514420985846996875529104874723"

In:  AM=DEG FL_ASLIFT=0 FL_CPXRES=0 RX=Real:"2"
Out: EC=1 FL_CPXRES=0 FL_ASLIFT=0 RX=Real:"2"

In:  AM=DEG FL_ASLIFT=0 FL_CPXRES=1 RX=Real:"2"
Out: EC=0 FL_CPXRES=1 FL_ASLIFT=1 RL=Real:"2" RX=Cplx:"0.54930614433405484569762261846126285232374527891137472586734717 i 1.5707963267948966192313216916397514420985846996875529104874723"

In:  AM=DEG FL_ASLIFT=0 FL_CPXRES=0 RX=Real:"2.5"
Out: EC=1 FL_CPXRES=0 FL_ASLIFT=0 RX=Real:"2.5"

In:  AM=DEG FL_ASLIFT=0 FL_CPXRES=0 FL_SPCRES=1 RX=Real:"2.5"
Out: EC=0 FL_CPXRES=0 FL_ASLIFT=1 RL=Real:"2.5" RX=Real:"NaN"

In:  AM=DEG FL_ASLIFT=0 FL_CPXRES=0 FL_SPCRES=0 RX=Real:"inf"
Out: EC=1 FL_CPXRES=0 FL_ASLIFT=0 RX=Real:"inf"

In:  AM=DEG FL_ASLIFT=0 FL_CPXRES=0 FL_SPCRES=1 RX=Real:"inf"
Out: EC=0 FL_CPXRES=0 FL_ASLIFT=1 RL=Real:"inf" RX=Real:"NaN"

In:  AM=DEG FL_ASLIFT=0 FL_CPXRES=1 FL_SPCRES=0 RX=Real:"2.5"
Out: EC=0 FL_CPXRES=1 FL_ASLIFT=1 RL=Real:"2.5" RX=Cplx:"0.42364893019360180685505375326032701249479708587955586836234791 i 1.5707963267948966192313216916397514420985846996875529104874723"

In:  AM=DEG FL_ASLIFT=0 FL_CPXRES=0 RX=Real:"-2.5":RAD
Out: EC=1 FL_CPXRES=0 FL_ASLIFT=0 RX=Real:"-2.5":RAD

In:  AM=DEG FL_ASLIFT=0 FL_CPXRES=1 RX=Real:"-2.5":GRAD
Out: EC=0 FL_CPXRES=1 FL_ASLIFT=1 RL=Real:"-2.5":GRAD RX=Cplx:"-0.42364893019360180685505375326032701249479708587955586836234791 i 1.5707963267948966192313216916397514420985846996875529104874723"

In:  AM=DEG FL_ASLIFT=0 FL_CPXRES=0 RX=Real:"-2":MULTPI
Out: EC=1 FL_CPXRES=0 FL_ASLIFT=0 RX=Real:"-2":MULTPI

In:  AM=DEG FL_ASLIFT=0 FL_CPXRES=1 RX=Real:"-2":DEG
Out: EC=0 FL_CPXRES=1 FL_ASLIFT=1 RL=Real:"-2":DEG RX=Cplx:"-0.54930614433405484569762261846126285232374527891137472586734717 i 1.5707963267948966192313216916397514420985846996875529104874723"

In:  AM=DEG FL_ASLIFT=0 FL_CPXRES=0 RX=Real:"-1.5":GRAD
Out: EC=1 FL_CPXRES=0 FL_ASLIFT=0 RX=Real:"-1.5":GRAD

In:  AM=DEG FL_ASLIFT=0 FL_CPXRES=1 RX=Real:"-1.5":RAD
Out: EC=0 FL_CPXRES=1 FL_ASLIFT=1 RL=Real:"-1.5":RAD RX=Cplx:"-0.80471895621705018730037966661309381976280067713425886095632395 i 1.5707963267948966192313216916397514420985846996875529104874723"

In:  AM=DEG FL_ASLIFT=0 FL_CPXRES=0 FL_SPCRES=1 RX=Real:"-1":DEG
Out: EC=0 FL_CPXRES=0 FL_ASLIFT=1 RL=Real:"-1":DEG RX=Real:"-inf"

In:  AM=DEG FL_ASLIFT=0 FL_CPXRES=0 FL_SPCRES=0 RX=Real:"-1":GRAD
Out: EC=1 FL_CPXRES=0 FL_ASLIFT=0 RX=Real:"-1":GRAD

In:  AM=DEG FL_ASLIFT=0 FL_CPXRES=0 RX=Real:"-0.5":DMS
Out: EC=0 FL_CPXRES=0 FL_ASLIFT=1 RL=Real:"-0.5":DMS RX=Real:"-0.54930614433405484569762261846126285232374527891137472586734717"

In:  AM=DEG FL_ASLIFT=0 FL_CPXRES=0 RX=Real:"0":DEG
Out: EC=0 FL_CPXRES=0 FL_ASLIFT=1 RL=Real:"0":DEG RX=Real:"0"

In:  AM=DEG FL_ASLIFT=0 FL_CPXRES=0 RX=Real:"0.5":GRAD
Out: EC=0 FL_CPXRES=0 FL_ASLIFT=1 RL=Real:"0.5":GRAD RX=Real:"0.54930614433405484569762261846126285232374527891137472586734717"

In:  AM=DEG FL_ASLIFT=0 FL_CPXRES=0 FL_SPCRES=1 RX=Real:"1":RAD
Out: EC=0 FL_CPXRES=0 FL_ASLIFT=1 RL=Real:"1":RAD RX=Real:"inf"

In:  AM=DEG FL_ASLIFT=0 FL_CPXRES=0 FL_SPCRES=0 RX=Real:"1.5":MULTPI
Out: EC=1 FL_CPXRES=0 FL_ASLIFT=0 RX=Real:"1.5":MULTPI

In:  AM=DEG FL_ASLIFT=0 FL_CPXRES=1 RX=Real:"1.5":DMS
Out: EC=0 FL_CPXRES=1 FL_ASLIFT=1 RL=Real:"1.5":DMS RX=Cplx:"0.80471895621705018730037966661309381976280067713425886095632395 i 1.5707963267948966192313216916397514420985846996875529104874723"

In:  AM=DEG FL_ASLIFT=0 FL_CPXRES=0 RX=Real:"2":MULTPI
Out: EC=1 FL_CPXRES=0 FL_ASLIFT=0 RX=Real:"2":MULTPI

In:  AM=DEG FL_ASLIFT=0 FL_CPXRES=1 RX=Real:"2":RAD
Out: EC=0 FL_CPXRES=1 FL_ASLIFT=1 RL=Real:"2":RAD RX=Cplx:"0.54930614433405484569762261846126285232374527891137472586734717 i 1.5707963267948966192313216916397514420985846996875529104874723"

In:  AM=DEG FL_ASLIFT=0 FL_CPXRES=0 RX=Real:"2.5":GRAD
Out: EC=1 FL_CPXRES=0 FL_ASLIFT=0 RX=Real:"2.5":GRAD

In:  AM=DEG FL_ASLIFT=0 FL_CPXRES=1 RX=Real:"2.5":DEG
Out: EC=0 FL_CPXRES=1 FL_ASLIFT=1 RL=Real:"2.5":DEG RX=Cplx:"0.42364893019360180685505375326032701249479708587955586836234791 i 1.5707963267948966192313216916397514420985846996875529104874723"



;=======================================
; arctanh(Complex) --> Complex
;=======================================
In:  AM=DEG FL_ASLIFT=0 FL_CPXRES=1 RX=Cplx:"-2 i -3"
Out: EC=0 FL_CPXRES=1 FL_ASLIFT=1 RL=Cplx:"-2 i -3" RX=Cplx:"-0.14694666622552975204743278515471594244234494034424529538918519 i -1.3389725222944935611241935759091442410843161725444927785820058"
