;*************************************************************
;*************************************************************
;**                                                         **
;**           CDF of Cauchy-Lorentz distribution            **
;**                                                         **
;*************************************************************
;*************************************************************
In: FL_SPCRES=0 FL_CPXRES=0 SD=0 RMODE=0 IM=2compl SS=4 WS=64
Func: fnCauchyL



;=======================================
; cauchyL(Long Integer) --> Real
;=======================================
In:  AM=DEG FL_ASLIFT=0 FL_CPXRES=0 RM=LonI:"0" RS=LonI:"1" RX=LonI:"0"
Out: EC=0 FL_CPXRES=0 FL_ASLIFT=1 RL=LonI:"0" RX=Real:"0.5"

In:  AM=DEG FL_ASLIFT=0 FL_CPXRES=0 RM=LonI:"0" RS=LonI:"1" RX=LonI:"1"
Out: EC=0 FL_CPXRES=0 FL_ASLIFT=1 RL=LonI:"1" RX=Real:"0.75"

In:  AM=DEG FL_ASLIFT=0 FL_CPXRES=0 RM=LonI:"0" RS=LonI:"1" RX=LonI:"-1"
Out: EC=0 FL_CPXRES=0 FL_ASLIFT=1 RL=LonI:"-1" RX=Real:"0.25"

In:  AM=DEG FL_ASLIFT=0 FL_CPXRES=0 RM=LonI:"0" RS=LonI:"1" RX=LonI:"2"
Out: EC=0 FL_CPXRES=0 FL_ASLIFT=1 RL=LonI:"2" RX=Real:"0.8524163823495667258245989237752595"

In:  AM=DEG FL_ASLIFT=0 FL_CPXRES=0 RM=LonI:"0" RS=LonI:"1" RX=LonI:"-2"
Out: EC=0 FL_CPXRES=0 FL_ASLIFT=1 RL=LonI:"-2" RX=Real:"0.1475836176504332741754010762247405"

In:  AM=DEG FL_ASLIFT=0 FL_CPXRES=0 RM=LonI:"0" RS=LonI:"1" RX=LonI:"3"
Out: EC=0 FL_CPXRES=0 FL_ASLIFT=1 RL=LonI:"3" RX=Real:"0.8975836176504332741754010762247405"

In:  AM=DEG FL_ASLIFT=0 FL_CPXRES=0 RM=LonI:"0" RS=LonI:"1" RX=LonI:"-3"
Out: EC=0 FL_CPXRES=0 FL_ASLIFT=1 RL=LonI:"-3" RX=Real:"0.1024163823495667258245989237752595"

In:  AM=DEG FL_ASLIFT=0 FL_CPXRES=0 RM=LonI:"1" RS=LonI:"1" RX=LonI:"2"
Out: EC=0 FL_CPXRES=0 FL_ASLIFT=1 RL=LonI:"2" RX=Real:"0.75"

In:  AM=DEG FL_ASLIFT=0 FL_CPXRES=0 RM=LonI:"1" RS=LonI:"2" RX=LonI:"3"
Out: EC=0 FL_CPXRES=0 FL_ASLIFT=1 RL=LonI:"3" RX=Real:"0.75"



;=======================================
; cauchyL(Time) --> Error24
;=======================================



;=======================================
; cauchyL(Date) --> Error24
;=======================================



;=======================================
; cauchyL(String) --> Error24
;=======================================
In:  FL_ASLIFT=0 RX=Stri:"String test"
Out: EC=24 FL_ASLIFT=0 RX=Stri:"String test"



;=======================================
; cauchyL(Real Matrix) --> Error24
;=======================================



;=======================================
; cauchyL(Complex Matrix) --> Error24
;=======================================



;=======================================
; cauchyL(Short Integer) --> Error24
;=======================================



;=======================================
; cauchyL(Real) --> Real
;=======================================
In:  AM=DEG FL_ASLIFT=0 FL_CPXRES=0 RM=Real:"0" RS=Real:"1" RX=Real:"0"
Out: EC=0 FL_CPXRES=0 FL_ASLIFT=1 RL=Real:"0" RX=Real:"0.5"

In:  AM=DEG FL_ASLIFT=0 FL_CPXRES=0 RM=Real:"0" RS=Real:"1" RX=Real:"1"
Out: EC=0 FL_CPXRES=0 FL_ASLIFT=1 RL=Real:"1" RX=Real:"0.75"

In:  AM=DEG FL_ASLIFT=0 FL_CPXRES=0 RM=Real:"0" RS=Real:"1" RX=Real:"-1"
Out: EC=0 FL_CPXRES=0 FL_ASLIFT=1 RL=Real:"-1" RX=Real:"0.25"

In:  AM=DEG FL_ASLIFT=0 FL_CPXRES=0 RM=Real:"0" RS=Real:"1" RX=Real:"2"
Out: EC=0 FL_CPXRES=0 FL_ASLIFT=1 RL=Real:"2" RX=Real:"0.8524163823495667258245989237752595"

In:  AM=DEG FL_ASLIFT=0 FL_CPXRES=0 RM=Real:"0" RS=Real:"1" RX=Real:"-2"
Out: EC=0 FL_CPXRES=0 FL_ASLIFT=1 RL=Real:"-2" RX=Real:"0.1475836176504332741754010762247405"

In:  AM=DEG FL_ASLIFT=0 FL_CPXRES=0 RM=Real:"0" RS=Real:"1" RX=Real:"3"
Out: EC=0 FL_CPXRES=0 FL_ASLIFT=1 RL=Real:"3" RX=Real:"0.8975836176504332741754010762247405"

In:  AM=DEG FL_ASLIFT=0 FL_CPXRES=0 RM=Real:"0" RS=Real:"1" RX=Real:"-3"
Out: EC=0 FL_CPXRES=0 FL_ASLIFT=1 RL=Real:"-3" RX=Real:"0.1024163823495667258245989237752595"

In:  AM=DEG FL_ASLIFT=0 FL_CPXRES=0 RM=Real:"1" RS=Real:"1" RX=Real:"2"
Out: EC=0 FL_CPXRES=0 FL_ASLIFT=1 RL=Real:"2" RX=Real:"0.75"

In:  AM=DEG FL_ASLIFT=0 FL_CPXRES=0 RM=Real:"1" RS=Real:"2" RX=Real:"3"
Out: EC=0 FL_CPXRES=0 FL_ASLIFT=1 RL=Real:"3" RX=Real:"0.75"



;=======================================
; cauchyL(Complex) --> Error24
;=======================================
