;*************************************************************
;*************************************************************
;**                                                         **
;**                    STRING x ...                         **
;**                    ... x STRING                         **
;**                                                         **
;*************************************************************
;*************************************************************
In: FL_SPCRES=0 FL_CPXRES=0 SD=0 RMODE=0 IM=2compl SS=4 WS=64
Func: fnMultiply



;==================================================================
; String x Long Integer  see in multiplication_longInteger.txt
; String x Real          see in multiplication_real.txt
; String x Complex       see in multiplication_complex.txt
; String x Time          see in multiplication_time.txt
; String x Date          see in multiplication_date.txt
;==================================================================



;=======================================
; String x String --> Error24
;=======================================
In:  FL_ASLIFT=0 FL_CPXRES=0 RY=Stri:"String test " RX=Stri:"C47!"
Out: EC=24 FL_CPXRES=0 FL_ASLIFT=0 RX=Stri:"C47!"



;=======================================
; String x Real Matrix
;=======================================

;=======================================
; Real Matrix x String
;=======================================



;=======================================
; String x Complex Matrix
;=======================================

;=======================================
; Complex Matrix x String
;=======================================



;=======================================
; String x Short Integer --> Error24
;=======================================
In:  FL_ASLIFT=0 RY=Stri:"String test " RX=ShoI:"1234ABCD#16"
Out: EC=24 FL_ASLIFT=0 RX=ShoI:"1234ABCD#16"

;=======================================
; Short Integer x String --> Error24
;=======================================
In:  FL_ASLIFT=0 RY=ShoI:"12540#9" RX=Stri:"String test"
Out: EC=24 FL_ASLIFT=0 RX=Stri:"String test"



;=======================================
; String x Real --> Error24
;=======================================
In:  FL_ASLIFT=0 RY=Stri:"String test " RX=Real:"-12.34"
Out: EC=24 FL_ASLIFT=0 RX=Real:"-12.34"

In:  FL_ASLIFT=0 RY=Stri:"String test " RX=Real:"-12.34":DEG
Out: EC=24 FL_ASLIFT=0 RX=Real:"-12.34":DEG

In:  FL_ASLIFT=0 RY=Stri:"String test " RX=Real:"-12.345678":DMS
Out: EC=24 FL_ASLIFT=0 RX=Real:"-12.345678":DMS

In:  FL_ASLIFT=0 RY=Stri:"String test " RX=Real:"-12.345678":GRAD
Out: EC=24 FL_ASLIFT=0 RX=Real:"-12.345678":GRAD

In:  FL_ASLIFT=0 RY=Stri:"String test " RX=Real:"-12.345678":RAD
Out: EC=24 FL_ASLIFT=0 RX=Real:"-12.345678":RAD

In:  FL_ASLIFT=0 RY=Stri:"String test " RX=Real:"-12.345678":MULTPI
Out: EC=24 FL_ASLIFT=0 RX=Real:"-12.345678":MULTPI

;=======================================
; Real x String --> Error24
;=======================================
In:  FL_ASLIFT=0 RY=Real:"12540" RX=Stri:"String test"
Out: EC=24 FL_ASLIFT=0 RX=Stri:"String test"

In:  FL_ASLIFT=0 RY=Real:"12540":GRAD RX=Stri:"String test"
Out: EC=24 FL_ASLIFT=0 RX=Stri:"String test"



;=======================================
; String x Complex --> Error24
;=======================================
In:  FL_ASLIFT=0 FL_CPXRES=0 RY=Stri:"String test " RX=Cplx:"-12.34 i 52"
Out: EC=24 FL_CPXRES=0 FL_ASLIFT=0 RX=Cplx:"-12.34 i 52"

;=======================================
; Complex x String --> Error24
;=======================================
In:  FL_ASLIFT=0 RY=Cplx:"12540 i 5" RX=Stri:"String test"
Out: EC=24 FL_ASLIFT=0 RX=Stri:"String test"
