;*************************************************************
;*************************************************************
;**                                                         **
;**               PDF of Poisson distribution               **
;**                                                         **
;*************************************************************
;*************************************************************
In: FL_SPCRES=0 FL_CPXRES=0 SD=0 RMODE=0 IM=2compl SS=4 WS=64
Func: fnPoissonP



;=======================================
; PoissonP(Long Integer) --> Real
;=======================================
In:  AM=DEG FL_ASLIFT=0 FL_CPXRES=0 RR=LonI:"1" RX=LonI:"0"
Out: EC=0 FL_CPXRES=0 FL_ASLIFT=1 RL=LonI:"0" RX=Real:"0.3678794411714423215955237701614609"

In:  AM=DEG FL_ASLIFT=0 FL_CPXRES=0 RR=LonI:"1" RX=LonI:"1"
Out: EC=0 FL_CPXRES=0 FL_ASLIFT=1 RL=LonI:"1" RX=Real:"0.3678794411714423215955237701614609"

In:  AM=DEG FL_ASLIFT=0 FL_CPXRES=0 RR=LonI:"1" RX=LonI:"2"
Out: EC=0 FL_CPXRES=0 FL_ASLIFT=1 RL=LonI:"2" RX=Real:"0.1839397205857211607977618850807304"

In:  AM=DEG FL_ASLIFT=0 FL_CPXRES=0 RR=LonI:"1" RX=LonI:"3"
Out: EC=0 FL_CPXRES=0 FL_ASLIFT=1 RL=LonI:"3" RX=Real:"0.06131324019524038693258729502691014"

In:  AM=DEG FL_ASLIFT=0 FL_CPXRES=0 RR=LonI:"1" RX=LonI:"5"
Out: EC=0 FL_CPXRES=0 FL_ASLIFT=1 RL=LonI:"5" RX=Real:"0.003065662009762019346629364751345507"


In:  AM=DEG FL_ASLIFT=0 FL_CPXRES=0 RR=LonI:"5" RX=LonI:"0"
Out: EC=0 FL_CPXRES=0 FL_ASLIFT=1 RL=LonI:"0" RX=Real:"0.006737946999085467096636048423148424"

In:  AM=DEG FL_ASLIFT=0 FL_CPXRES=0 RR=LonI:"5" RX=LonI:"3"
Out: EC=0 FL_CPXRES=0 FL_ASLIFT=1 RL=LonI:"3" RX=Real:"0.1403738958142805645132510088155922"

In:  AM=DEG FL_ASLIFT=0 FL_CPXRES=0 RR=LonI:"5" RX=LonI:"5"
Out: EC=0 FL_CPXRES=0 FL_ASLIFT=1 RL=LonI:"5" RX=Real:"0.1754673697678507056415637610194902"

In:  AM=DEG FL_ASLIFT=0 FL_CPXRES=0 RR=LonI:"5" RX=LonI:"8"
Out: EC=0 FL_CPXRES=0 FL_ASLIFT=1 RL=LonI:"8" RX=Real:"0.06527803934815874465831985156975082"

In:  AM=DEG FL_ASLIFT=0 FL_CPXRES=0 RR=LonI:"5" RX=LonI:"10"
Out: EC=0 FL_CPXRES=0 FL_ASLIFT=1 RL=LonI:"10" RX=Real:"0.01813278870782187351619995876937523"



;=======================================
; PoissonP(Time) --> Error24
;=======================================



;=======================================
; PoissonP(Date) --> Error24
;=======================================



;=======================================
; PoissonP(String) --> Error24
;=======================================
In:  FL_ASLIFT=0 RX=Stri:"String test"
Out: EC=24 FL_ASLIFT=0 RX=Stri:"String test"



;=======================================
; PoissonP(Real Matrix) --> Error24
;=======================================



;=======================================
; PoissonP(Complex Matrix) --> Error24
;=======================================



;=======================================
; PoissonP(Short Integer) --> Error24
;=======================================



;=======================================
; PoissonP(Real) --> Real
;=======================================
In:  AM=DEG FL_ASLIFT=0 FL_CPXRES=0 RR=Real:"1" RX=Real:"0"
Out: EC=0 FL_CPXRES=0 FL_ASLIFT=1 RL=Real:"0" RX=Real:"0.3678794411714423215955237701614609"

In:  AM=DEG FL_ASLIFT=0 FL_CPXRES=0 RR=Real:"1" RX=Real:"1"
Out: EC=0 FL_CPXRES=0 FL_ASLIFT=1 RL=Real:"1" RX=Real:"0.3678794411714423215955237701614609"

In:  AM=DEG FL_ASLIFT=0 FL_CPXRES=0 RR=Real:"1" RX=Real:"2"
Out: EC=0 FL_CPXRES=0 FL_ASLIFT=1 RL=Real:"2" RX=Real:"0.1839397205857211607977618850807304"

In:  AM=DEG FL_ASLIFT=0 FL_CPXRES=0 RR=Real:"1" RX=Real:"3"
Out: EC=0 FL_CPXRES=0 FL_ASLIFT=1 RL=Real:"3" RX=Real:"0.06131324019524038693258729502691014"

In:  AM=DEG FL_ASLIFT=0 FL_CPXRES=0 RR=Real:"1" RX=Real:"5"
Out: EC=0 FL_CPXRES=0 FL_ASLIFT=1 RL=Real:"5" RX=Real:"0.003065662009762019346629364751345507"


In:  AM=DEG FL_ASLIFT=0 FL_CPXRES=0 RR=Real:"5" RX=Real:"0"
Out: EC=0 FL_CPXRES=0 FL_ASLIFT=1 RL=Real:"0" RX=Real:"0.006737946999085467096636048423148424"

In:  AM=DEG FL_ASLIFT=0 FL_CPXRES=0 RR=Real:"5" RX=Real:"3"
Out: EC=0 FL_CPXRES=0 FL_ASLIFT=1 RL=Real:"3" RX=Real:"0.1403738958142805645132510088155922"

In:  AM=DEG FL_ASLIFT=0 FL_CPXRES=0 RR=Real:"5" RX=Real:"5"
Out: EC=0 FL_CPXRES=0 FL_ASLIFT=1 RL=Real:"5" RX=Real:"0.1754673697678507056415637610194902"

In:  AM=DEG FL_ASLIFT=0 FL_CPXRES=0 RR=Real:"5" RX=Real:"8"
Out: EC=0 FL_CPXRES=0 FL_ASLIFT=1 RL=Real:"8" RX=Real:"0.06527803934815874465831985156975082"

In:  AM=DEG FL_ASLIFT=0 FL_CPXRES=0 RR=Real:"5" RX=Real:"10"
Out: EC=0 FL_CPXRES=0 FL_ASLIFT=1 RL=Real:"10" RX=Real:"0.01813278870782187351619995876937523"


In:  AM=DEG FL_ASLIFT=0 FL_CPXRES=0 RR=Real:"7.5" RX=Real:"0"
Out: EC=0 FL_CPXRES=0 FL_ASLIFT=1 RL=Real:"0" RX=Real:"5.530843701478335831020000885303572e-4"

In:  AM=DEG FL_ASLIFT=0 FL_CPXRES=0 RR=Real:"7.5" RX=Real:"4"
Out: EC=0 FL_CPXRES=0 FL_ASLIFT=1 RL=Real:"4" RX=Real:"0.07291639645503665402223633979648264"

In:  AM=DEG FL_ASLIFT=0 FL_CPXRES=0 RR=Real:"7.5" RX=Real:"7"
Out: EC=0 FL_CPXRES=0 FL_ASLIFT=1 RL=Real:"7" RX=Real:"0.1464838321641361353125283611982910"

In:  AM=DEG FL_ASLIFT=0 FL_CPXRES=0 RR=Real:"7.5" RX=Real:"10"
Out: EC=0 FL_CPXRES=0 FL_ASLIFT=1 RL=Real:"10" RX=Real:"0.08583037040867351678468458663962364"

In:  AM=DEG FL_ASLIFT=0 FL_CPXRES=0 RR=Real:"7.5" RX=Real:"15"
Out: EC=0 FL_CPXRES=0 FL_ASLIFT=1 RL=Real:"15" RX=Real:"0.005652111562837028579785653407310069"



;=======================================
; PoissonP(Complex) --> Error24
;=======================================
