;*************************************************************
;*************************************************************
;**                                                         **
;**                 LONG INTEGER ^ ...                      **
;**                 ... ^ LONG INTEGER                      **
;**                                                         **
;*************************************************************
;*************************************************************
In: FL_SPCRES=0 FL_CPXRES=0 SD=0 RMODE=0 IM=2compl SS=4 WS=64
Func: fnPower



;=======================================
; Long Integer ^ Long Integer --> Long Integer
;=======================================
In:  FL_ASLIFT=0 RY=LonI:"2" RX=LonI:"11"
Out: EC=0 FL_CPXRES=0 FL_ASLIFT=1 RL=LonI:"11" RX=LonI:"2048"

In:  FL_ASLIFT=0 RY=LonI:"-2" RX=LonI:"3"
Out: EC=0 FL_CPXRES=0 FL_ASLIFT=1 RL=LonI:"3" RX=LonI:"-8"

In:  FL_ASLIFT=0 RY=LonI:"-2" RX=LonI:"4"
Out: EC=0 FL_CPXRES=0 FL_ASLIFT=1 RL=LonI:"4" RX=LonI:"16"

In:  FL_ASLIFT=0 RY=LonI:"-2" RX=LonI:"5"
Out: EC=0 FL_CPXRES=0 FL_ASLIFT=1 RL=LonI:"5" RX=LonI:"-32"

In:  FL_ASLIFT=0 RY=LonI:"2" RX=LonI:"200"
Out: EC=0 FL_CPXRES=0 FL_ASLIFT=1 RL=LonI:"200" RX=LonI:"1606938044258990275541962092341162602522202993782792835301376"

In:  FL_ASLIFT=0 FL_OVERFL=0 RY=LonI:"0" RX=LonI:"3"
Out: EC=0 FL_CPXRES=0 FL_ASLIFT=1 FL_OVERFL=0 RL=LonI:"3" RX=LonI:"0"

In:  FL_ASLIFT=0 FL_OVERFL=0 RY=LonI:"1" RX=LonI:"-1"
Out: EC=0 FL_CPXRES=0 FL_ASLIFT=1 FL_OVERFL=0 RL=LonI:"-1" RX=LonI:"1"

In:  FL_ASLIFT=0 FL_OVERFL=0 RY=LonI:"2" RX=LonI:"-1"
Out: EC=0 FL_CPXRES=0 FL_ASLIFT=1 FL_OVERFL=0 RL=LonI:"-1" RX=Real:"0.5"



;=======================================
; Long Integer ^ Time
;=======================================

;=======================================
; Time ^ Long Integer
;=======================================



;=======================================
; Long Integer ^ Date
;=======================================

;=======================================
; Date ^ Long Integer
;=======================================



;=======================================
; Long Integer ^ String --> Error24
;=======================================
In:  FL_ASLIFT=0 RY=LonI:"12540" RX=Stri:"String test"
Out: EC=24 FL_ASLIFT=0 RX=Stri:"String test"

;=======================================
; String ^ Long Integer --> Error24
;=======================================
In:  FL_ASLIFT=0 RY=Stri:"String test " RX=LonI:"-1234"
Out: EC=24 FL_ASLIFT=0 RX=LonI:"-1234"



;=======================================
; Long Integer ^ Real Matrix
;=======================================

;=======================================
; Real Matrix ^ Long Integer
;=======================================
In:  FL_ASLIFT=0 FL_CPXRES=0 RY=ReMa:"M2,3[0,1,0.2,3,4,0.5]" RX=LonI:"3"
Out: EC=0 FL_CPXRES=0 FL_ASLIFT=1 RL=LonI:"3" RX=ReMa:"M2,3[0,1,0.008,27,64,0.125]"



;=======================================
; Long Integer ^ Complex Matrix
;=======================================

;=======================================
; Complex Matrix ^ Long Integer
;=======================================
In:  AM=RAD FL_ASLIFT=0 FL_CPXRES=0 RY=CxMa:"M2,3[0,0i-1,2i-1,-3i2,4i3,-5i-4]" RX=LonI:"3"
Out: EC=0 FL_CPXRES=1 FL_ASLIFT=1 RL=LonI:"3" RX=CxMa:"M2,3[0,0i1,2i-11,9i46,-44i117,115i-236]"


;=======================================
; Long Integer ^ Short Integer --> Long Integer
;=======================================
In:  FL_ASLIFT=0 FL_CPXRES=0 IM=2COMPL RY=LonI:"1234" RX=ShoI:"24#8" ;RX=20
Out: EC=0 FL_CPXRES=0 FL_ASLIFT=1 RL=ShoI:"24#8" RX=LonI:"67035243914691711794360082394262505332216263021359359696306176"

In:  FL_ASLIFT=0 RY=LonI:"-2" RX=ShoI:"3#4"
Out: EC=0 FL_CPXRES=0 FL_ASLIFT=1 RL=ShoI:"3#4" RX=LonI:"-8"

In:  FL_ASLIFT=0 RY=LonI:"-2" RX=ShoI:"4#5"
Out: EC=0 FL_CPXRES=0 FL_ASLIFT=1 RL=ShoI:"4#5" RX=LonI:"16"

In:  FL_ASLIFT=0 RY=LonI:"-2" RX=ShoI:"5#6"
Out: EC=0 FL_CPXRES=0 FL_ASLIFT=1 RL=ShoI:"5#6" RX=LonI:"-32"

;=======================================
; Short Integer ^ Long Integer --> Short Integer
;=======================================
In:  FL_ASLIFT=0 FL_CPXRES=0 IM=2COMPL WS=32 FL_OVERFL=0 RY=ShoI:"45247#8" RX=LonI:"12" ;RY=19111
Out: EC=0 FL_CPXRES=0 FL_ASLIFT=1 FL_OVERFL=1 RL=LonI:"12" RX=ShoI:"4354742241#8"

In:  FL_ASLIFT=0 FL_CPXRES=0 IM=2COMPL WS=64 FL_OVERFL=0 RY=ShoI:"45247#8" RX=LonI:"12" ;RY=19111
Out: EC=0 FL_CPXRES=0 FL_ASLIFT=1 FL_OVERFL=1 RL=LonI:"12" RX=ShoI:"75003602344354742241#8"

In:  FL_ASLIFT=0 FL_OVERFL=0 RY=ShoI:"-2#4" RX=LonI:"3"
Out: EC=0 FL_CPXRES=0 FL_ASLIFT=1 FL_OVERFL=0 RL=LonI:"3" RX=ShoI:"-20#4"

In:  FL_ASLIFT=0 FL_OVERFL=0 RY=ShoI:"-2#5" RX=LonI:"4"
Out: EC=0 FL_CPXRES=0 FL_ASLIFT=1 FL_OVERFL=0 RL=LonI:"4" RX=ShoI:"31#5"

In:  FL_ASLIFT=0 FL_OVERFL=0 RY=ShoI:"-2#6" RX=LonI:"5"
Out: EC=0 FL_CPXRES=0 FL_ASLIFT=1 FL_OVERFL=0 RL=LonI:"5" RX=ShoI:"-52#6"



;=======================================
; Long Integer ^ Real --> Real
;=======================================
In:  FL_ASLIFT=0 RY=LonI:"5" RX=Real:"123.456"
Out: EC=0 FL_CPXRES=0 FL_ASLIFT=1 RL=Real:"123.456" RX=Real:"1.9590289562203547661849732382478881082061206314350810594214883e+86"

In:  AM=DEG FL_CPXRES=0 FL_ASLIFT=0 RY=LonI:"2" RX=Real:"123.4":DEG
Out: EC=0 FL_CPXRES=0 FL_ASLIFT=1 RL=Real:"123.4":DEG RX=Real:"14031414845271966722579997222050159552.088081736449456307453811"

In:  AM=DMS FL_CPXRES=0 FL_ASLIFT=0 RY=LonI:"2" RX=Real:"123.4":DEG
Out: EC=0 FL_CPXRES=0 FL_ASLIFT=1 RL=Real:"123.4":DEG RX=Real:"14031414845271966722579997222050159552.088081736449456307453811"

In:  AM=GRAD FL_CPXRES=0 FL_ASLIFT=0 RY=LonI:"2" RX=Real:"123.4":DEG
Out: EC=0 FL_CPXRES=0 FL_ASLIFT=1 RL=Real:"123.4":DEG RX=Real:"14031414845271966722579997222050159552.088081736449456307453811"

In:  AM=RAD FL_CPXRES=0 FL_ASLIFT=0 RY=LonI:"2" RX=Real:"123.4":DEG
Out: EC=0 FL_CPXRES=0 FL_ASLIFT=1 RL=Real:"123.4":DEG RX=Real:"14031414845271966722579997222050159552.088081736449456307453811"

In:  AM=MULTPI FL_CPXRES=0 FL_ASLIFT=0 RY=LonI:"2" RX=Real:"123.4":DEG
Out: EC=0 FL_CPXRES=0 FL_ASLIFT=1 RL=Real:"123.4":DEG RX=Real:"14031414845271966722579997222050159552.088081736449456307453811"

In:  AM=DEG FL_CPXRES=0 FL_ASLIFT=0 RY=LonI:"2" RX=Real:"123.453099":DMS
Out: EC=0 FL_CPXRES=0 FL_ASLIFT=1 RL=Real:"123.453099":DMS RX=Real:"14557468420784632186278091172514191357.60714127587936564875537"

In:  AM=DMS FL_CPXRES=0 FL_ASLIFT=0 RY=LonI:"2" RX=Real:"123.453099":DMS
Out: EC=0 FL_CPXRES=0 FL_ASLIFT=1 RL=Real:"123.453099":DMS RX=Real:"14557468420784632186278091172514191357.60714127587936564875537"

In:  AM=GRAD FL_CPXRES=0 FL_ASLIFT=0 RY=LonI:"2" RX=Real:"123.453099":DMS
Out: EC=0 FL_CPXRES=0 FL_ASLIFT=1 RL=Real:"123.453099":DMS RX=Real:"14557468420784632186278091172514191357.60714127587936564875537"

In:  AM=RAD FL_CPXRES=0 FL_ASLIFT=0 RY=LonI:"2" RX=Real:"123.453099":DMS
Out: EC=0 FL_CPXRES=0 FL_ASLIFT=1 RL=Real:"123.453099":DMS RX=Real:"14557468420784632186278091172514191357.60714127587936564875537"

In:  AM=MULTPI FL_CPXRES=0 FL_ASLIFT=0 RY=LonI:"2" RX=Real:"123.453099":DMS
Out: EC=0 FL_CPXRES=0 FL_ASLIFT=1 RL=Real:"123.453099":DMS RX=Real:"14557468420784632186278091172514191357.60714127587936564875537"

In:  AM=DEG FL_CPXRES=0 FL_ASLIFT=0 RY=LonI:"2" RX=Real:"123.453099":GRAD
Out: EC=0 FL_CPXRES=0 FL_ASLIFT=1 RL=Real:"123.453099":GRAD RX=Real:"14557468420784632186278091172514191357.60714127587936564875537"

In:  AM=DMS FL_CPXRES=0 FL_ASLIFT=0 RY=LonI:"2" RX=Real:"123.453099":GRAD
Out: EC=0 FL_CPXRES=0 FL_ASLIFT=1 RL=Real:"123.453099":GRAD RX=Real:"14557468420784632186278091172514191357.60714127587936564875537"

In:  AM=GRAD FL_CPXRES=0 FL_ASLIFT=0 RY=LonI:"2" RX=Real:"123.453099":GRAD
Out: EC=0 FL_CPXRES=0 FL_ASLIFT=1 RL=Real:"123.453099":GRAD RX=Real:"14557468420784632186278091172514191357.60714127587936564875537"

In:  AM=RAD FL_CPXRES=0 FL_ASLIFT=0 RY=LonI:"2" RX=Real:"123.453099":GRAD
Out: EC=0 FL_CPXRES=0 FL_ASLIFT=1 RL=Real:"123.453099":GRAD RX=Real:"14557468420784632186278091172514191357.60714127587936564875537"

In:  AM=MULTPI FL_CPXRES=0 FL_ASLIFT=0 RY=LonI:"2" RX=Real:"123.453099":GRAD
Out: EC=0 FL_CPXRES=0 FL_ASLIFT=1 RL=Real:"123.453099":GRAD RX=Real:"14557468420784632186278091172514191357.60714127587936564875537"

In:  AM=DEG FL_CPXRES=0 FL_ASLIFT=0 RY=LonI:"2" RX=Real:"3.453099789":RAD
Out: EC=0 FL_CPXRES=0 FL_ASLIFT=1 RL=Real:"3.453099789":RAD RX=Real:"10.951827999657763014974112684628139432600036141997959332555989"

In:  AM=DMS FL_CPXRES=0 FL_ASLIFT=0 RY=LonI:"2" RX=Real:"3.453099789":RAD
Out: EC=0 FL_CPXRES=0 FL_ASLIFT=1 RL=Real:"3.453099789":RAD RX=Real:"10.951827999657763014974112684628139432600036141997959332555989"

In:  AM=GRAD FL_CPXRES=0 FL_ASLIFT=0 RY=LonI:"2" RX=Real:"3.453099789":RAD
Out: EC=0 FL_CPXRES=0 FL_ASLIFT=1 RL=Real:"3.453099789":RAD RX=Real:"10.951827999657763014974112684628139432600036141997959332555989"

In:  AM=RAD FL_CPXRES=0 FL_ASLIFT=0 RY=LonI:"2" RX=Real:"3.453099789":RAD
Out: EC=0 FL_CPXRES=0 FL_ASLIFT=1 RL=Real:"3.453099789":RAD RX=Real:"10.951827999657763014974112684628139432600036141997959332555989"

In:  AM=MULTPI FL_CPXRES=0 FL_ASLIFT=0 RY=LonI:"2" RX=Real:"3.453099789":RAD
Out: EC=0 FL_CPXRES=0 FL_ASLIFT=1 RL=Real:"3.453099789":RAD RX=Real:"10.951827999657763014974112684628139432600036141997959332555989"

In:  AM=DEG FL_CPXRES=0 FL_ASLIFT=0 RY=LonI:"2" RX=Real:"3.453099789":MULTPI
Out: EC=0 FL_CPXRES=0 FL_ASLIFT=1 RL=Real:"3.453099789":MULTPI RX=Real:"10.951827999657763014974112684628139432600036141997959332555989"

In:  AM=DMS FL_CPXRES=0 FL_ASLIFT=0 RY=LonI:"2" RX=Real:"3.453099789":MULTPI
Out: EC=0 FL_CPXRES=0 FL_ASLIFT=1 RL=Real:"3.453099789":MULTPI RX=Real:"10.951827999657763014974112684628139432600036141997959332555989"

In:  AM=GRAD FL_CPXRES=0 FL_ASLIFT=0 RY=LonI:"2" RX=Real:"3.453099789":MULTPI
Out: EC=0 FL_CPXRES=0 FL_ASLIFT=1 RL=Real:"3.453099789":MULTPI RX=Real:"10.951827999657763014974112684628139432600036141997959332555989"

In:  AM=RAD FL_CPXRES=0 FL_ASLIFT=0 RY=LonI:"2" RX=Real:"3.453099789":MULTPI
Out: EC=0 FL_CPXRES=0 FL_ASLIFT=1 RL=Real:"3.453099789":MULTPI RX=Real:"10.951827999657763014974112684628139432600036141997959332555989"

In:  AM=MULTPI FL_CPXRES=0 FL_ASLIFT=0 RY=LonI:"2" RX=Real:"3.453099789":MULTPI
Out: EC=0 FL_CPXRES=0 FL_ASLIFT=1 RL=Real:"3.453099789":MULTPI RX=Real:"10.951827999657763014974112684628139432600036141997959332555989"

;=======================================
; Real ^ Long Integer --> Real
;=======================================
In:  FL_ASLIFT=0 RY=Real:"123.456" RX=LonI:"5"
Out: EC=0 FL_CPXRES=0 FL_ASLIFT=1 RL=LonI:"5" RX=Real:"28678802168.634497644363776"

In:  FL_ASLIFT=0 FL_CPXRES=0 RY=Real:"-0.5" RX=LonI:"2"
Out: EC=0 FL_CPXRES=0 FL_ASLIFT=1 RL=LonI:"2" RX=Real:"0.25"

In:  FL_ASLIFT=0 FL_CPXRES=0 RY=Real:"-0.5" RX=LonI:"3"
Out: EC=0 FL_CPXRES=0 FL_ASLIFT=1 RL=LonI:"3" RX=Real:"-0.125"

In:  AM=DEG FL_CPXRES=0 FL_ASLIFT=0 RY=Real:"123.4":DEG RX=LonI:"2"
Out: EC=0 FL_CPXRES=0 FL_ASLIFT=1 RL=LonI:"2" RX=Real:"15227.56"

In:  AM=DMS FL_CPXRES=0 FL_ASLIFT=0 RY=Real:"123.4":DEG RX=LonI:"2"
Out: EC=0 FL_CPXRES=0 FL_ASLIFT=1 RL=LonI:"2" RX=Real:"15227.56"

In:  AM=GRAD FL_CPXRES=0 FL_ASLIFT=0 RY=Real:"123.4":DEG RX=LonI:"2"
Out: EC=0 FL_CPXRES=0 FL_ASLIFT=1 RL=LonI:"2" RX=Real:"15227.56"

In:  AM=RAD FL_CPXRES=0 FL_ASLIFT=0 RY=Real:"123.4":DEG RX=LonI:"2"
Out: EC=0 FL_CPXRES=0 FL_ASLIFT=1 RL=LonI:"2" RX=Real:"15227.56"

In:  AM=MULTPI FL_CPXRES=0 FL_ASLIFT=0 RY=Real:"123.4":DEG RX=LonI:"2"
Out: EC=0 FL_CPXRES=0 FL_ASLIFT=1 RL=LonI:"2" RX=Real:"15227.56"

In:  AM=DEG FL_CPXRES=0 FL_ASLIFT=0 RY=Real:"123.453099":DMS RX=LonI:"2"
Out: EC=0 FL_CPXRES=0 FL_ASLIFT=1 RL=LonI:"2" RX=Real:"15240.667652703801"

In:  AM=DMS FL_CPXRES=0 FL_ASLIFT=0 RY=Real:"123.453099":DMS RX=LonI:"2"
Out: EC=0 FL_CPXRES=0 FL_ASLIFT=1 RL=LonI:"2" RX=Real:"15240.667652703801"

In:  AM=GRAD FL_CPXRES=0 FL_ASLIFT=0 RY=Real:"123.453099":DMS RX=LonI:"2"
Out: EC=0 FL_CPXRES=0 FL_ASLIFT=1 RL=LonI:"2" RX=Real:"15240.667652703801"

In:  AM=RAD FL_CPXRES=0 FL_ASLIFT=0 RY=Real:"123.453099":DMS RX=LonI:"2"
Out: EC=0 FL_CPXRES=0 FL_ASLIFT=1 RL=LonI:"2" RX=Real:"15240.667652703801"

In:  AM=MULTPI FL_CPXRES=0 FL_ASLIFT=0 RY=Real:"123.453099":DMS RX=LonI:"2"
Out: EC=0 FL_CPXRES=0 FL_ASLIFT=1 RL=LonI:"2" RX=Real:"15240.667652703801"

In:  AM=DEG FL_CPXRES=0 FL_ASLIFT=0 RY=Real:"123.453099":GRAD RX=LonI:"2"
Out: EC=0 FL_CPXRES=0 FL_ASLIFT=1 RL=LonI:"2" RX=Real:"15240.667652703801"

In:  AM=DMS FL_CPXRES=0 FL_ASLIFT=0 RY=Real:"123.453099":GRAD RX=LonI:"2"
Out: EC=0 FL_CPXRES=0 FL_ASLIFT=1 RL=LonI:"2" RX=Real:"15240.667652703801"

In:  AM=GRAD FL_CPXRES=0 FL_ASLIFT=0 RY=Real:"123.453099":GRAD RX=LonI:"2"
Out: EC=0 FL_CPXRES=0 FL_ASLIFT=1 RL=LonI:"2" RX=Real:"15240.667652703801"

In:  AM=RAD FL_CPXRES=0 FL_ASLIFT=0 RY=Real:"123.453099":GRAD RX=LonI:"2"
Out: EC=0 FL_CPXRES=0 FL_ASLIFT=1 RL=LonI:"2" RX=Real:"15240.667652703801"

In:  AM=MULTPI FL_CPXRES=0 FL_ASLIFT=0 RY=Real:"123.453099":GRAD RX=LonI:"2"
Out: EC=0 FL_CPXRES=0 FL_ASLIFT=1 RL=LonI:"2" RX=Real:"15240.667652703801"

In:  AM=DEG FL_CPXRES=0 FL_ASLIFT=0 RY=Real:"3.453099789":RAD RX=LonI:"2"
Out: EC=0 FL_CPXRES=0 FL_ASLIFT=1 RL=LonI:"2" RX=Real:"11.923898152791844521"

In:  AM=DMS FL_CPXRES=0 FL_ASLIFT=0 RY=Real:"3.453099789":RAD RX=LonI:"2"
Out: EC=0 FL_CPXRES=0 FL_ASLIFT=1 RL=LonI:"2" RX=Real:"11.923898152791844521"

In:  AM=GRAD FL_CPXRES=0 FL_ASLIFT=0 RY=Real:"3.453099789":RAD RX=LonI:"2"
Out: EC=0 FL_CPXRES=0 FL_ASLIFT=1 RL=LonI:"2" RX=Real:"11.923898152791844521"

In:  AM=RAD FL_CPXRES=0 FL_ASLIFT=0 RY=Real:"3.453099789":RAD RX=LonI:"2"
Out: EC=0 FL_CPXRES=0 FL_ASLIFT=1 RL=LonI:"2" RX=Real:"11.923898152791844521"

In:  AM=MULTPI FL_CPXRES=0 FL_ASLIFT=0 RY=Real:"3.453099789":RAD RX=LonI:"2"
Out: EC=0 FL_CPXRES=0 FL_ASLIFT=1 RL=LonI:"2" RX=Real:"11.923898152791844521"

In:  AM=DEG FL_CPXRES=0 FL_ASLIFT=0 RY=Real:"3.453099789":MULTPI RX=LonI:"2"
Out: EC=0 FL_CPXRES=0 FL_ASLIFT=1 RL=LonI:"2" RX=Real:"11.923898152791844521"

In:  AM=DMS FL_CPXRES=0 FL_ASLIFT=0 RY=Real:"3.453099789":MULTPI RX=LonI:"2"
Out: EC=0 FL_CPXRES=0 FL_ASLIFT=1 RL=LonI:"2" RX=Real:"11.923898152791844521"

In:  AM=GRAD FL_CPXRES=0 FL_ASLIFT=0 RY=Real:"3.453099789":MULTPI RX=LonI:"2"
Out: EC=0 FL_CPXRES=0 FL_ASLIFT=1 RL=LonI:"2" RX=Real:"11.923898152791844521"

In:  AM=RAD FL_CPXRES=0 FL_ASLIFT=0 RY=Real:"3.453099789":MULTPI RX=LonI:"2"
Out: EC=0 FL_CPXRES=0 FL_ASLIFT=1 RL=LonI:"2" RX=Real:"11.923898152791844521"

In:  AM=MULTPI FL_CPXRES=0 FL_ASLIFT=0 RY=Real:"3.453099789":MULTPI RX=LonI:"2"
Out: EC=0 FL_CPXRES=0 FL_ASLIFT=1 RL=LonI:"2" RX=Real:"11.923898152791844521"



;=======================================
; Long Integer ^ Complex --> Complex
;=======================================
In:  FL_ASLIFT=0 RY=LonI:"4" RX=Cplx:"123.456 i -6.78"
Out: EC=0 FL_CPXRES=1 FL_ASLIFT=1 RL=Cplx:"123.456 i -6.78" RX=Cplx:"-2.1270359272913709495732303449788920035031030932498551228616922e+74 i -5.4681528046893919212293733478777332266384627784034876004792665e+72"

;=======================================
; Complex ^ Long Integer --> Complex
;=======================================
In:  FL_ASLIFT=0 FL_CPXRES=0 RY=Cplx:"123.456 i -6.78" RX=LonI:"4"
Out: EC=0 FL_CPXRES=1 FL_ASLIFT=1 RL=LonI:"4" RX=Cplx:"228098165.178415677696 i -50876176.77758472192"
