;*************************************************************
;*************************************************************
;**                                                         **
;**                COMPLEX MATRIX ^ ...                     **
;**                ... ^ COMPLEX MATRIX                     **
;**                                                         **
;*************************************************************
;*************************************************************
In: FL_SPCRES=0 FL_CPXRES=0 SD=0 RMODE=0 IM=2compl SS=4 WS=64
Func: fnPower



;==================================================================
; Complex Matrix ^ Long Integer   see in power_longInteger.txt
; Complex Matrix ^ Real           see in power_real.txt
; Complex Matrix ^ Complex        see in power_complex.txt
; Complex Matrix ^ Time           see in power_time.txt
; Complex Matrix ^ Date           see in power_date.txt
; Complex Matrix ^ String         see in power_string.txt
; Complex Matrix ^ Real Matrix    see in power_realMatrix.txt
;==================================================================



;=======================================
; Complex Matrix ^ Complex Matrix
;=======================================



;=======================================
; Complex Matrix ^ Short Integer
;=======================================
In:  AM=RAD FL_ASLIFT=0 FL_CPXRES=0 RY=CxMa:"M2,3[0,0i-1,2i-1,-3i2,4i3,-5i-4]" RX=ShoI:"11#2"
Out: EC=0 FL_CPXRES=1 FL_ASLIFT=1 RL=ShoI:"11#2" RX=CxMa:"M2,3[0,0i1,2i-11,9i46,-44i117,115i-236]"

;=======================================
; Short Integer ^ Complex Matrix
;=======================================



;=======================================
; Complex Matrix ^ Real
;=======================================
In:  AM=RAD FL_ASLIFT=0 FL_CPXRES=0 RY=CxMa:"M2,3[0,0i-1,2i-1,-3i2,4i3,-5i-4]" RX=Real:"3"
Out: EC=0 FL_CPXRES=1 FL_ASLIFT=1 RL=Real:"3" RX=CxMa:"M2,3[0,0i1,2i-11,9i46,-44i117,115i-236]"

;=======================================
; Real ^ Complex Matrix
;=======================================



;=======================================
; Complex Matrix ^ Complex
;=======================================
In:  AM=RAD FL_ASLIFT=0 FL_CPXRES=0 RY=CxMa:"M2,3[-1,0i-1,2i-1,-3i2,4i3,-5i-4]" RX=Cplx:"0i1"
Out: EC=0 FL_CPXRES=1 FL_ASLIFT=1 RL=Cplx:"0i1" RX=CxMa:"M2,3[0.0432139182637722497744177371717280112757,4.81047738096535165547303566670383312639,1.10227368172907086309539442061033404881i1.14571195161473392069109579336243121157,0.0221224548548370985261100680088638065243i0.0745903819943646950671068577333785560969,-0.020299150979623891742987634092373274242i0.525057299346011845272313561482304483869,-3.32471251050656835140062359383825711684i11.30660103778896545017248569403238718323]"

;=======================================
; Complex ^ Complex Matrix
;=======================================
